[
    {
        "pk": 1,
        "model": "pumpkin.scm",
        "fields": {
            "code": "GIT",
            "name": "Git",
            "class_name": "pumpkin.scm.GitSCMRunner"
        }
    },
    {
        "pk": 1,
        "model": "pumpkin.trigger",
        "fields": {
            "name": "Runing by Periodically",
            "runner_class": "pumpkin.trigger_runners.PeriodicTriggerRunner"
        }
    },
    {
        "pk": 2,
        "model": "pumpkin.trigger",
        "fields": {
            "name": "Runing by Cronjob",
            "runner_class": "pumpkin.trigger_runners.CronjobTriggerRunner"
        }
    },

    {
        "pk": 1,
        "model": "pumpkin.builder",
        "fields": {
            "name": "Bash Command Execute",
            "class_name": "pumpkin.builders.BashBuilder"
        }
    },
    {
        "pk": 2,
        "model": "pumpkin.builder",
        "fields": {
            "name": "Python Class Execute",
            "class_name": "pumpkin.builders.PythonClassBuilder"
        }
    },
    {
        "pk": 1,
        "model": "pumpkin.postbuilder",
        "fields": {
            "name": "Email Feedback",
            "class_name": "pumpkin.post_builders.EMailFeedbackBuilder"
        }
    }
]
